{
	"animales": {
		"animal": [
			{
				"Id": 1,
				"Nombre": "Pepe",
				"Fecha nacimiento": "25/01/1950",
				"Especie": "Elefante",
				"Raza": "Asiatico",
				"Constitucion":{
					"Altura": 0.5,
					"Peso": 90000
				},
				"Historial Medico":[
					{"fecha": "26/01/1950", "descripcion": "visita por nacimiento"},
					{"fecha": "25/01/1951", "descripcion": "visita por cumpleaños"},
					{"fecha": "31/01/2004", "descripcion": "otra visita más."}
				]

			},
			{
				"Id": 2,
				"Nombre": "Perry",
				"Fecha nacimiento": "13/06/1995",
				"Especie": "Ornitorrinco",
				"Raza": "Azulado",
				"Constitucion":{
					"Altura": 10,
					"Peso": 10
				},
				"Historial Medico":[
					{"fecha": "15/06/1995", "descripcion": "visita por nacimiento"},
					{"fecha": "31/02/2012", "descripcion": "ultima visita."}
				]

			}

		]
	}
}
