{
    "Peliculas":[
        {
            "Nombre":"Red Dead Redemption",
            "Año": 2023,
            "Estilos":[
                    "Aventuras","Acción"
            ],
            "Duracion": 220,
            "Edad Minima": 18,
            "Infantil": false,
            "Repartimiento":[
                {
                    "Director":[
                        {
                            "Nombre": "George Dan",
                            "Edad": 25
                        }
                    ],
                    "Actores":[
                            {
                                "Nombre": "Tommy Johnson",
                                "Personaje interpretado": "Arthur Morgan"
                            },
                            {
                                "Nombre": "Diego Sol",
                                "Personaje interpretado": "Dutch Van"
                            },
                            {
                                "Nombre": "Jorge Esteban",
                                "Personaje interpretado": "Lenny Lopez"
                            },
                            {
                                "Nombre": "Mark Antonio",
                                "Personaje interpretado": "John Marston"
                            }
                    ]
                }
            ]
        },
        {
            "Nombre":"Gran Robo De Coches: Leonida",
            "Año": 2025,
            "Estilos":[
                    "Acción","Carreras","Robos"
            ],
            "Duracion": 281,
            "Edad Minima": 18,
            "Infantil": false,
            "Repartimiento":[
                {
                    "Director":[
                        {
                            "Nombre": "Jose Dan",
                            "Edad": 24
                        }
                    ],
                    "Actores":[
                            {
                                "Nombre": "Martina Rios",
                                "Personaje interpretado": "Lucia"
                            },
                            {
                                "Nombre": "Robert Schanz",
                                "Personaje interpretado": "Josh"
                            },
                            {
                                "Nombre": "Iker Josh",
                                "Personaje interpretado": "Michael"
                            },
                            {
                                "Nombre": "Jose Jose",
                                "Personaje interpretado": "Carl"
                            }
                    ]
                }
            ]
        },
        {
            "Nombre":"Casa de Cubos",
            "Año": 2024,
            "Estilos":[
                "Animada","Infantil","Divertida","Construccion"
            ],
            "Duracion": 95,
            "Edad Minima": 0,
            "Infantil": true,
            "Repartimiento":[
                {
                    "Director":[
                        {
                            "Nombre": "John Keyes",
                            "Edad": 31
                        }
                    ],
                    "Actores":[
                            {
                                "Nombre": "Jonathan Joemi",
                                "Personaje interpretado": "Steve"
                            },
                            {
                                "Nombre": "Maria Martinez",
                                "Personaje interpretado": "Alex"
                            },
                            {
                                "Nombre": "Mark Person",
                                "Personaje interpretado": "Notch"
                            },
                            {
                                "Nombre": "Diego Thomas",
                                "Personaje interpretado": "Herobrine"
                            }
                    ]
                }
            ]
        }
    ]
}
